{
  "images" : [
    {
      "filename" : "icons8-online-money-transfer-25 (1).png",
      "idiom" : "universal",
      "scale" : "1x"
    },
    {
      "filename" : "icons8-online-money-transfer-50 (1).png",
      "idiom" : "universal",
      "scale" : "2x"
    },
    {
      "filename" : "icons8-online-money-transfer-75.png",
      "idiom" : "universal",
      "scale" : "3x"
    }
  ],
  "info" : {
    "author" : "xcode",
    "version" : 1
  }
}
